build/wave.vcd
$date
	Wed Jul 16 14:15:51 2025
$end
$version
	Icarus Verilog
$end
$timescale
	1ps
$end
$scope module d_cache_test $end
$var wire 1 ! wr_en $end
$var wire 32 " wr_addr [31:0] $end
$var wire 1 # rd_en $end
$var wire 32 $ rd_addr [31:0] $end
$var wire 64 % data_out [63:0] $end
$var wire 64 & data_in [63:0] $end
$var wire 32 ' d_cache_q [31:0] $end
$var wire 1 ( d_cache_hit_miss $end
$var reg 1 ) clk $end
$var reg 32 * d_cache_addr [31:0] $end
$var reg 32 + d_cache_din [31:0] $end
$var reg 1 , d_cache_rden $end
$var reg 1 - d_cache_wren $end
$scope module DUT_CACHE $end
$var wire 32 . address [31:0] $end
$var wire 1 ) clock $end
$var wire 32 / cpu_data [31:0] $end
$var wire 32 0 data_ca2cpu [31:0] $end
$var wire 64 1 data_ca2mem [63:0] $end
$var wire 1 ( hit_miss $end
$var wire 1 ! mem_wren $end
$var wire 1 , read_en $end
$var wire 1 - write_en $end
$var wire 1 # mem_rden $end
$var wire 64 2 mem_data [63:0] $end
$var wire 32 3 addr2write_mem [31:0] $end
$var wire 32 4 addr2read_mem [31:0] $end
$var parameter 32 5 BLOCK_SIZE $end
$var parameter 1 6 IDLE $end
$var parameter 32 7 MEM_WIDTH $end
$var parameter 1 8 MISS $end
$var parameter 32 9 NUM_SETS $end
$var parameter 32 : NUM_WAYS $end
$var parameter 32 ; OFFSET_WIDTH $end
$var parameter 32 < SET_WIDTH $end
$var parameter 96 = SIZE $end
$var parameter 32 > TAG_WIDTH $end
$var parameter 32 ? WIDTH $end
$var parameter 32 @ WORD1 $end
$var parameter 32 A WORD2 $end
$var reg 32 B rg_addr2write_mem [31:0] $end
$var reg 32 C rg_data_ca2cpu [31:0] $end
$var reg 64 D rg_data_ca2mem [63:0] $end
$var reg 1 E rg_hit_miss $end
$var reg 1 F rg_mem_wren $end
$var reg 1 G state $end
$var integer 32 H k [31:0] $end
$upscope $end
$scope module DUT_MEM $end
$var wire 1 ) clock $end
$var wire 64 I data [63:0] $end
$var wire 7 J rdaddress [6:0] $end
$var wire 1 # rden $end
$var wire 7 K wraddress [6:0] $end
$var wire 1 ! wren $end
$var parameter 32 L DEPTH $end
$var parameter 112 M FILE $end
$var parameter 32 N INIT $end
$var parameter 32 O WIDTH $end
$var reg 64 P q [63:0] $end
$upscope $end
$upscope $end
$enddefinitions $end
$comment Show the parameter values. $end
$dumpall
b1000000 O
b0 N
b110010001011111011011010110010101101101010111110110010001100001011101000110000100101110011101000111100001110100 M
b10000000 L
b111 A
b11 @
b100000 ?
b10011 >
b1000000000000000000 =
b1010 <
b11 ;
b100 :
b10000000000 9
18
b1000000 7
06
b1000000 5
$end
#0
$dumpvars
bx P
b0 K
b0 J
b0 I
b10000000000 H
0G
0F
0E
b0 D
b0 C
b0 B
b0 4
b0 3
bx 2
b0 1
b0 0
b0 /
b0 .
0-
0,
b0 +
b0 *
0)
0(
b0 '
b0 &
bx %
b0 $
1#
b0 "
0!
$end
#5000
1)
#10000
0)
#15000
1)
#20000
0)
#25000
1)
#30000
0)
#35000
1)
#40000
0)
#45000
1)
#50000
0)
#55000
1)
#60000
0)
#65000
1)
#70000
0)
#75000
1)
#80000
0)
#85000
1)
#90000
0)
#95000
1)
#100000
b1 J
b1 $
b1 4
1,
b1000 *
b1000 .
0)
#105000
1G
1)
#110000
0)
#115000
0#
0G
1)
#120000
0)
#125000
1(
1E
1)
#130000
0)
#135000
1)
#140000
0)
#145000
1)
#150000
0)
#155000
1)
#160000
0)
#165000
1)
#170000
0)
#175000
1)
#180000
0)
#185000
1)
#190000
0)
#195000
1)
#200000
1-
0,
b10111010110111011011111011101111 +
b10111010110111011011111011101111 /
0)
#205000
1)
#210000
0)
#215000
1)
#220000
0)
#225000
1)
#230000
0)
#235000
1)
#240000
0)
#245000
1)
#250000
0)
#255000
1)
#260000
0)
#265000
1)
#270000
0)
#275000
1)
#280000
0)
#285000
1)
#290000
0)
#295000
1)
#300000
b0 +
b0 /
b1011 *
b1011 .
0)
#305000
1)
#310000
0)
#315000
1)
#320000
0)
#325000
1)
#330000
0)
#335000
1)
#340000
0)
#345000
1)
#350000
0)
#355000
1)
#360000
0)
#365000
1)
#370000
0)
#375000
1)
#380000
0)
#385000
1)
#390000
0)
#395000
1)
#400000
b10101010101010101010101010101010 +
b10101010101010101010101010101010 /
b1100 *
b1100 .
0)
#405000
1)
#410000
0)
#415000
1)
#420000
0)
#425000
1)
#430000
0)
#435000
1)
#440000
0)
#445000
1)
#450000
0)
#455000
1)
#460000
0)
#465000
1)
#470000
0)
#475000
1)
#480000
0)
#485000
1)
#490000
0)
#495000
1)
#500000
1#
b10000000000000000000000001 $
b10000000000000000000000001 4
0-
1,
b0 +
b0 /
b10000000000000000000000001000 *
b10000000000000000000000001000 .
0)
#505000
1G
0(
0E
1)
#510000
0)
#515000
0#
0G
1)
#520000
0)
#525000
1(
1E
1)
#530000
0)
#535000
1)
#540000
0)
#545000
1)
#550000
0)
#555000
1)
#560000
0)
#565000
1)
#570000
0)
#575000
1)
#580000
0)
#585000
1)
#590000
0)
#595000
1)
#600000
1#
b100000000000000000000000001 $
b100000000000000000000000001 4
b100000000000000000000000001000 *
b100000000000000000000000001000 .
0)
#605000
1G
0(
0E
1)
#610000
0)
#615000
0#
0G
1)
#620000
0)
#625000
1(
1E
1)
#630000
0)
#635000
1)
#640000
0)
#645000
1)
#650000
0)
#655000
1)
#660000
0)
#665000
1)
#670000
0)
#675000
1)
#680000
0)
#685000
1)
#690000
0)
#695000
1)
#700000
1#
b110000000000000000000000001 $
b110000000000000000000000001 4
b110000000000000000000000001000 *
b110000000000000000000000001000 .
0)
#705000
1G
0(
0E
1)
#710000
0)
#715000
0#
0G
1)
#720000
0)
#725000
1(
1E
1)
#730000
0)
#735000
1)
#740000
0)
#745000
1)
#750000
0)
#755000
1)
#760000
0)
#765000
1)
#770000
0)
#775000
1)
#780000
0)
#785000
1)
#790000
0)
#795000
1)
#800000
1#
b1000000000000000000000000001 $
b1000000000000000000000000001 4
b1000000000000000000000000001000 *
b1000000000000000000000000001000 .
0)
#805000
1G
0(
0E
1)
#810000
0)
#815000
0#
b1 K
0G
b1010101010101010101010101010101000000000000000000000000000000000 &
b1010101010101010101010101010101000000000000000000000000000000000 1
b1010101010101010101010101010101000000000000000000000000000000000 I
b1010101010101010101010101010101000000000000000000000000000000000 D
1!
1F
b1 "
b1 3
b1 B
1)
#820000
0)
#825000
1(
1E
0!
0F
1)
#830000
0)
#835000
1)
#840000
0)
#845000
1)
#850000
0)
#855000
1)
#860000
0)
#865000
1)
#870000
0)
#875000
1)
#880000
0)
#885000
1)
#890000
0)
#895000
1)
#900000
1#
b1 $
b1 4
b1000 *
b1000 .
0)
#905000
1G
0(
0E
b1010101010101010101010101010101000000000000000000000000000000000 %
b1010101010101010101010101010101000000000000000000000000000000000 2
b1010101010101010101010101010101000000000000000000000000000000000 P
1)
#910000
0)
#915000
0#
0G
1)
#920000
0)
#925000
1(
1E
1)
#930000
0)
#935000
1)
#940000
0)
#945000
1)
#950000
0)
#955000
1)
#960000
0)
#965000
1)
#970000
0)
#975000
1)
#980000
0)
#985000
1)
#990000
0)
#995000
1)
#1000000
1#
b10000000000000000000000001 $
b10000000000000000000000001 4
1-
0,
b10111010110111011011111011101111 +
b10111010110111011011111011101111 /
b10000000000000000000000001000 *
b10000000000000000000000001000 .
0)
#1005000
1G
0(
0E
1)
#1010000
0)
#1015000
0#
0G
1)
#1020000
0)
#1025000
1(
1E
1)
